<svg xmlns="http://www.w3.org/2000/svg" width="24" height="24" viewBox="0 0 24 24">
    <g>
        <path fill="none" d="M0 0H24V24H0z" transform="translate(-634 -2478) translate(634 2478)"/>
        <path d="M-479.636-2013.091a1.365 1.365 0 0 1-1.364-1.364v-14.727a1.365 1.365 0 0 1 1.364-1.364h3.9l1.4-2.33a.818.818 0 0 1 .7-.4h6.545a.818.818 0 0 1 .7.4l1.4 2.33h6.628a1.365 1.365 0 0 1 1.364 1.364v14.727a1.365 1.365 0 0 1-1.364 1.364zm.273-1.636h20.727v-14.182h-6.818a.818.818 0 0 1-.7-.4l-1.4-2.33h-5.619l-1.4 2.33a.818.818 0 0 1-.7.4h-4.091zm2.918-7.473a5.925 5.925 0 0 1 5.918-5.918 5.925 5.925 0 0 1 5.918 5.918 5.925 5.925 0 0 1-5.918 5.918 5.925 5.925 0 0 1-5.918-5.918zm1.636 0a4.287 4.287 0 0 0 4.282 4.282 4.287 4.287 0 0 0 4.282-4.282 4.287 4.287 0 0 0-4.282-4.282 4.287 4.287 0 0 0-4.282 4.282zm11.536-2.345a.818.818 0 0 1-.818-.818.818.818 0 0 1 .818-.818h2.455a.818.818 0 0 1 .818.818.818.818 0 0 1-.818.818z" transform="translate(-634 -2478) translate(1115 4513.273)"/>
    </g>
</svg>
