<svg xmlns="http://www.w3.org/2000/svg" width="16" height="16" viewBox="0 0 16 16">
    <g>
        <path fill="none" d="M0 0H16V16H0z" transform="translate(-1026 -1164) translate(1026 1164)"/>
        <path fill="#fff" d="M391.75 81.75v14.711h-5.369l-5.262-7.405v7.405h-5.369V81.75h5.369l5.262 7.7v-7.7z" transform="translate(-1026 -1164) translate(650.25 1083.25)"/>
    </g>
</svg>
