<svg xmlns="http://www.w3.org/2000/svg" width="24" height="24" viewBox="0 0 24 24">
    <g fill="none" fill-rule="evenodd">
        <g>
            <g>
                <g transform="translate(-48 -415) translate(20 289) translate(28 126)">
                    <circle cx="12" cy="12" r="12" fill="#BE4A4F"/>
                    <path stroke="#FFF" stroke-linecap="round" stroke-width="1.5" d="M7 11.625L11.167 16 17 9"/>
                </g>
            </g>
        </g>
    </g>
</svg>
