<svg xmlns="http://www.w3.org/2000/svg" width="24" height="24" viewBox="0 0 24 24">
    <g fill="none" fill-rule="evenodd">
        <g>
            <g>
                <g>
                    <path d="M0 0H24V24H0z" transform="translate(-196 -205) translate(20 204) translate(176 1)"/>
                    <path fill="#CCC" d="M17.296 4.616l.583.558c.161.154.161.404 0 .558L11.333 12l6.546 6.268c.161.154.161.404 0 .558l-.583.558c-.16.155-.422.155-.583 0L9 12l7.713-7.384c.161-.155.422-.155.583 0z" transform="translate(-196 -205) translate(20 204) translate(176 1) matrix(-1 0 0 1 27 0)"/>
                </g>
            </g>
        </g>
    </g>
</svg>
