<svg xmlns="http://www.w3.org/2000/svg" width="24" height="24" viewBox="0 0 24 24">
    <g>
        <path fill="none" d="M0 0H24V24H0z" transform="translate(-529 -2443) translate(529 2443)"/>
        <path d="M-498.572-2005.093v-14.262a.8.8 0 0 1 .8-.8.8.8 0 0 1 .8.8v14.262a.8.8 0 0 1-.8.8.8.8 0 0 1-.8-.8zm-12.452 0v-14.262a.8.8 0 0 1 .8-.8.8.8 0 0 1 .8.8v14.262a.8.8 0 0 1-.8.8.8.8 0 0 1-.8-.8zm14.927-2.315v-9.632a.8.8 0 0 1 .8-.8.8.8 0 0 1 .8.8v9.632a.8.8 0 0 1-.8.8.8.8 0 0 1-.803-.799zm-4.976 0v-9.632a.8.8 0 0 1 .8-.8.8.8 0 0 1 .8.8v9.632a.8.8 0 0 1-.8.8.8.8 0 0 1-.8-.799zm-7.45 0v-9.632a.8.8 0 0 1 .8-.8.8.8 0 0 1 .8.8v9.632a.8.8 0 0 1-.8.8.8.8 0 0 1-.8-.799zm-4.976 0v-9.632a.8.8 0 0 1 .8-.8.8.8 0 0 1 .8.8v9.632a.8.8 0 0 1-.8.8.8.8 0 0 1-.801-.799zm9.951-1.251v-7.131a.8.8 0 0 1 .8-.8.8.8 0 0 1 .8.8v7.131a.8.8 0 0 1-.8.8.8.8 0 0 1-.799-.799zm9.951-1.064v-5a.8.8 0 0 1 .8-.8.8.8 0 0 1 .8.8v5a.8.8 0 0 1-.8.8.8.8 0 0 1-.803-.8zm-22.4 0v-5a.8.8 0 0 1 .8-.8.8.8 0 0 1 .8.8v5a.8.8 0 0 1-.8.8.8.8 0 0 1-.803-.8zm9.951-.16v-4.683a.8.8 0 0 1 .8-.8.8.8 0 0 1 .8.8v4.683a.8.8 0 0 1-.8.8.8.8 0 0 1-.802-.799z" transform="translate(-529 -2443) translate(1045 4467.153)"/>
    </g>
</svg>
