<svg xmlns="http://www.w3.org/2000/svg" width="24" height="24" viewBox="0 0 24 24">
    <g>
        <path fill="none" d="M0 0H24V24H0z" transform="translate(-915 -2469) translate(915 2469)"/>
        <path d="M42.815 3a10.616 10.616 0 0 0-7.2 2.9L35.7.943A.928.928 0 0 0 34.789 0h-.016a.928.928 0 0 0-.928.912l-.124 7.423a.929.929 0 0 0 .944.943l7.235-.123a.928.928 0 0 0-.013-1.855h-.016l-5.115.088a8.9 8.9 0 0 1 6.059-2.531 8.752 8.752 0 0 1 8.629 8.629 8.768 8.768 0 0 1-8.629 8.66c-5.63 0-8.629-5.029-8.629-8.66a.928.928 0 0 0-1.856 0 10.485 10.485 0 1 0 20.969 0A10.634 10.634 0 0 0 42.815 3z" transform="translate(-915 -2469) translate(883.67 2469)"/>
    </g>
</svg>
